A Visual History of Nobel Prize Winners
…
(For country, we will use the birth_country of the winner, as the organization_country is NA for all shared Nobel Prizes.)

## # A tibble: 1 x 1
##       n
##   <int>
## 1   911

## # A tibble: 3 x 2
##   sex        n
##   <chr>  <int>
## 1 Female    49
## 2 Male     836
## 3 <NA>      26

## # A tibble: 122 x 2
##    birth_country                                n
##    <chr>                                    <int>
##  1 Argentina                                    4
##  2 Australia                                   10
##  3 Austria                                     14
##  4 Austria-Hungary (Austria)                    1
##  5 Austria-Hungary (Bosnia and Herzegovina)     1
##  6 Austria-Hungary (Croatia)                    1
##  7 Austria-Hungary (Czech Republic)             4
##  8 Austria-Hungary (Hungary)                    3
##  9 Austria-Hungary (Poland)                     1
## 10 Austria-Hungary (Slovenia)                   1
## # ... with 112 more rows
…
