Rise and Fall of Programming Languages
…
One excellent source of data is Stack Overflow, a programming question and answer site with more than 16 million questions on programming topics. By measuring the number of questions about each technology, we can get an approximate sense of how many people are using it. Were going to use open data from the Stack Exchange Data Explorer to examine the relative popularity of languages like R, Python, Java and Javascript have changed over time.

Each Stack Overflow question has a tag, which marks a question to describe its topic or technology. For instance, theres a tag for languages like R or Python, and for packages like ggplot2 or pandas.

Stack Overflow tags

Well be working with a dataset with one observation for each tag in each year. The dataset includes both the number of questions asked in that tag in that year, and the total number of questions asked in that year.

Now in fraction format

This data has one observation for each pair of a tag and a year, showing the number of questions asked in that tag in that year and the total number of questions asked in that year. For instance, there were 54 questions asked about the .htaccess tag in 2008, out of a total of 58390 questions in that year.

Rather than just the counts, were probably interested in a percentage: the fraction of questions that year that have that tag. So lets add that to the table.

## # A tibble: 40,518 x 5
##     year tag           number year_total  fraction
##    <dbl> <chr>          <dbl>      <dbl>     <dbl>
##  1  2008 .htaccess         54      58390 0.000925 
##  2  2008 .net            5910      58390 0.101    
##  3  2008 .net-2.0         289      58390 0.00495  
##  4  2008 .net-3.5         319      58390 0.00546  
##  5  2008 .net-4.0           6      58390 0.000103 
##  6  2008 .net-assembly      3      58390 0.0000514
##  7  2008 .net-core          1      58390 0.0000171
##  8  2008 2d                42      58390 0.000719 
##  9  2008 32-bit            19      58390 0.000325 
## 10  2008 32bit-64bit        4      58390 0.0000685
## # ... with 40,508 more rows
…
What are the most asked-about tags?

Its sure been fun to visualize and compare tags over time. The dplyr and ggplot2 tags may not have as many questions as R, but we can tell theyre both growing quickly as well.

We might like to know which tags have the most questions overall, not just within a particular year. Right now, we have several rows for every tag, but well be combining them into one. That means we want group_by() and summarize().

Lets look at tags that have the most questions in history.

## # A tibble: 4,080 x 2
##    tag        tag_total
##    <chr>          <dbl>
##  1 javascript   1632049
##  2 java         1425961
##  3 c#           1217450
##  4 php          1204291
##  5 android      1110261
##  6 python        970768
##  7 jquery        915159
##  8 html          755341
##  9 c++           574263
## 10 ios           566075
## # ... with 4,070 more rows
…
