TV, Halftime Shows, and the Big Game
…
# Display the highest- and lowest-scoring Super Bowls
super_bowls  %>% 
 filter(combined_pts > 70 | 25 < combined_pts)

## # A tibble: 49 x 18
##    date       super_bowl venue city  state attendance team_winner winning_pts
##    <date>          <dbl> <chr> <chr> <chr>      <dbl> <chr>             <dbl>
##  1 2018-02-04         52 U.S.~ Minn~ Minn~      67612 Philadelph~          41
##  2 2017-02-05         51 NRG ~ Hous~ Texas      70807 New Englan~          34
##  3 2016-02-07         50 Levi~ Sant~ Cali~      71088 Denver Bro~          24
##  4 2015-02-01         49 Univ~ Glen~ Ariz~      70288 New Englan~          28
##  5 2014-02-02         48 MetL~ East~ New ~      82529 Seattle Se~          43
##  6 2013-02-03         47 Merc~ New ~ Loui~      71024 Baltimore ~          34
##  7 2012-02-05         46 Luca~ Indi~ Indi~      68658 New York G~          21
##  8 2011-02-06         45 Cowb~ Arli~ Texas     103219 Green Bay ~          31
##  9 2010-02-07         44 Sun ~ Miam~ Flor~      74059 New Orlean~          31
## 10 2009-02-01         43 Raym~ Tampa Flor~      70774 Pittsburgh~          27
## # ... with 39 more rows, and 10 more variables: qb_winner_1 <chr>,
## #   qb_winner_2 <chr>, coach_winner <chr>, team_loser <chr>, losing_pts <dbl>,
## #   qb_loser_1 <chr>, qb_loser_2 <chr>, coach_loser <chr>, combined_pts <dbl>,
## #   difference_pts <dbl>
…
Another hypothesis: maybe halftime shows werent as entertaining in the earlier years? The modern spectacle that is the Super Bowl has a lot to do with of big halftime acts. I went down a YouTube rabbit hole, and it turns out that older halftime shows were not quite the spectacle they are today. Some examples:

Super Bowl XXVI in 1992: A Frosty The Snowman rap performed by children.

Super Bowl XXIII in 1989: An Elvis impersonator who did magic tricks and didnt even sing one Elvis song.

Super Bowl XXI in 1987: Tap dancing ponies. Okay, that was pretty awesome actually.

It turns out that Michael Jacksons Super Bowl XXVII performance, one of the most watched events in American TV history, was when the NFL realized that the having big-name halftime acts brought in more viewers. Lets look at the halftime acts before Michael Jackson brought the NFL and entertainment industry together.

# Filter and diplay halftime musicians before and including Super Bowl XXVII
( pre_MJ  <- halftime_musicians  %>% 
 filter(super_bowl <= 27) )

## # A tibble: 54 x 3
##    super_bowl musician                              num_songs
##         <dbl> <chr>                                     <dbl>
##  1         27 Michael Jackson                               5
##  2         26 Gloria Estefan                                2
##  3         26 University of Minnesota Marching Band        NA
##  4         25 New Kids on the Block                         2
##  5         24 Pete Fountain                                 1
##  6         24 Doug Kershaw                                  1
##  7         24 Irma Thomas                                   1
##  8         24 Pride of Nicholls Marching Band              NA
##  9         24 The Human Jukebox                            NA
## 10         24 Pride of Acadiana                            NA
## # ... with 44 more rows
…
